<?xml version="1.0" encoding="utf-8"?>
<!-- Generator: Adobe Illustrator 22.1.0, SVG Export Plug-In . SVG Version: 6.00 Build 0)  -->
<svg version="1.1" id="Camada_1" xmlns="http://www.w3.org/2000/svg" xmlns:xlink="http://www.w3.org/1999/xlink" x="0px" y="0px"
	 viewBox="0 0 121 146" style="enable-background:new 0 0 121 146;" xml:space="preserve">
<style type="text/css">
	.st0{fill:#F52231;stroke:#3F6C83;stroke-miterlimit:10;}
	.st1{fill:#FFFFF9;}
	.st2{fill:#FFB200;}
	.st3{fill:#FFFFFF;}
</style>
<g>
	<path id="XMLID_76_" class="st0" d="M76.6,24.5H36.7c-3.4,0-6.2,2.8-6.2,6.2v81c0,3.4,2.8,6.2,6.2,6.2h39.9c3.4,0,6.2-2.8,6.2-6.2
		v-81C82.8,27.3,80.1,24.5,76.6,24.5z"/>
	<path id="XMLID_75_" class="st1" d="M35.6,105.2V31.9c0-0.1,0-0.1,0.1-0.1h41.9c0.1,0,0.1,0,0.1,0.1v73.3c0,0.1,0,0.1-0.1,0.1H35.7
		C35.7,105.3,35.6,105.3,35.6,105.2z"/>
	<path id="XMLID_74_" class="st1" d="M61.1,111.8c0-2.4-2-4.4-4.4-4.4c-2.4,0-4.4,2-4.4,4.4c0,2.4,2,4.4,4.4,4.4
		C59.1,116.2,61.1,114.2,61.1,111.8z"/>
	<path id="XMLID_73_" class="st1" d="M62.9,27.5H50.5c-0.4,0-0.6,0.3-0.6,0.6v0.1c0,0.4,0.3,0.6,0.6,0.6h12.4c0.4,0,0.6-0.3,0.6-0.6
		v-0.1C63.5,27.8,63.2,27.5,62.9,27.5z"/>
	<polygon id="XMLID_72_" class="st2" points="69.8,75.3 64.9,85.9 74.9,78.8 	"/>
	<circle id="XMLID_71_" class="st2" cx="81.1" cy="58.5" r="23"/>
	<path id="XMLID_70_" class="st3" d="M73.7,58.5c0-1-0.8-1.9-1.9-1.9c-1,0-1.9,0.8-1.9,1.9c0,1,0.8,1.9,1.9,1.9
		C72.8,60.3,73.7,59.5,73.7,58.5z"/>
	<path id="XMLID_69_" class="st3" d="M83,58.5c0-1-0.8-1.9-1.9-1.9c-1,0-1.9,0.8-1.9,1.9c0,1,0.8,1.9,1.9,1.9
		C82.1,60.3,83,59.5,83,58.5z"/>
	<circle id="XMLID_46_" class="st3" cx="90.4" cy="58.5" r="1.9"/>
</g>
</svg>
